<?xml version="1.0" encoding="UTF-8" standalone="no"?>
<svg
   xmlns:dc="http://purl.org/dc/elements/1.1/"
   xmlns:cc="http://creativecommons.org/ns#"
   xmlns:rdf="http://www.w3.org/1999/02/22-rdf-syntax-ns#"
   xmlns:svg="http://www.w3.org/2000/svg"
   xmlns="http://www.w3.org/2000/svg"
   version="1.1"
   id="svg2"
   viewBox="0 0 850.00001 850.00001"
   height="850"
   width="850">

  <metadata
     id="metadata7">
    <rdf:RDF>
      <cc:Work
         rdf:about="">
        <dc:format>image/svg+xml</dc:format>
        <dc:type
           rdf:resource="http://purl.org/dc/dcmitype/StillImage" />
        <dc:title></dc:title>
      </cc:Work>
    </rdf:RDF>
  </metadata>
  <g
     transform="translate(0,-202.36216)"
     id="layer1">
    <path
       id="path3347"
       d="m 408.89562,1039.8463 c -41.02619,-2.2832 -62.29247,-5.7535 -102.87396,-16.7874 -18.67941,-5.0788 -51.42414,-18.3904 -73.12388,-29.72669 C 122.96283,935.90027 42.065204,828.4278 18.899873,709.036 c -6.770001,-34.89194 -7.34547,-41.35645 -7.326904,-82.307 0.01813,-40.07923 0.663207,-47.69703 6.688718,-78.9925 C 42.755255,420.52093 128.0946,310.41211 245.7971,254.15963 c 9.64879,-4.61135 19.56878,-9.13946 22.04442,-10.06246 30.98839,-11.55344 40.64058,-14.52815 65.73601,-20.25917 33.81233,-7.7217 46.42289,-9.00032 89.40203,-9.06473 34.48281,-0.0517 41.38028,0.26965 57.4245,2.6752 10.02894,1.50365 20.50004,3.24237 23.26911,3.86382 2.76909,0.62145 9.16802,2.04446 14.21987,3.16226 21.47383,4.7514 54.83809,16.1312 76.54312,26.10719 113.42488,52.13184 197.75224,152.02536 228.90241,271.15593 37.33451,142.78201 -3.32794,292.8311 -107.61742,397.12058 -63.28046,63.28046 -142.56862,103.28055 -231.50709,116.79305 -15.30014,2.3245 -54.57961,5.2668 -64.03125,4.7964 -2.50327,-0.1246 -7.5825,-0.3952 -11.28719,-0.6014 z m 53.88637,-51.27483 c 101.34115,-11.5694 190.66169,-62.35291 251.40653,-142.93809 40.37014,-53.55574 63.71778,-112.72356 71.39857,-180.93899 2.44399,-21.70579 1.82644,-65.44186 -1.22776,-86.95299 -9.57159,-67.41376 -36.3512,-128.48807 -79.74405,-181.86647 -11.63337,-14.31044 -38.46455,-40.85359 -53.23103,-52.65959 -47.28719,-37.80677 -102.25055,-62.94922 -161.65908,-73.94939 -24.83451,-4.5984 -37.10062,-5.65754 -65.52092,-5.65754 -43.55535,0 -74.17776,4.78147 -113.28383,17.68848 -56.37416,18.60635 -101.85962,46.63812 -144.02084,88.75709 -59.18585,59.12657 -94.179246,131.32513 -104.817602,216.26025 -2.097061,16.74258 -2.08757,64.20053 0.01617,80.82954 8.091662,63.96103 28.526656,117.76915 64.037732,168.62013 22.47275,32.18039 57.23223,66.77923 90.48342,90.06523 45.5558,31.90299 104.60025,54.79551 158.6812,61.52335 8.03685,0.99981 16.26577,2.02587 18.28651,2.28015 10.49502,1.32061 54.20357,0.65031 69.19499,-1.06116 z M 213.04468,649.20596 c -4.625,-2.30473 -7.55143,-4.87078 -10.12602,-8.879 -3.25122,-5.06161 -3.57765,-6.46593 -3.19571,-13.74768 0.53384,-10.17746 4.66322,-16.79984 13.05281,-20.93311 l 5.68056,-2.79862 199.62448,-0.33294 c 133.19691,-0.22213 201.59022,0.0856 205.53185,0.92493 7.90323,1.68281 14.0704,6.63642 17.54105,14.08937 3.39417,7.28871 3.57346,11.03375 0.86436,18.05431 -2.76866,7.17495 -7.92613,12.31997 -14.83027,14.79455 -5.37744,1.92735 -20.71692,2.08139 -206.72333,2.07579 l -200.91487,-0.006 -6.50491,-3.24153 z"
        />
  </g>
</svg>
